[
  { "name": "Fist"
  , "weapon_type": ["Melee"]
  , "size": "OneHanded"
  , "num_dice": 1
  , "dice_size": 4
  , "modifier": -1
  , "special_rules": []
  , "range_cm": 0
  , "cost": 0
  }
, { "name": "Club"
  , "weapon_type": ["Melee"]
  , "size": "OneHanded"
  , "num_dice": 1
  , "dice_size": 4
  , "modifier": 0
  , "special_rules": []
  , "range_cm": 0
  , "cost": 4
  }
, { "name": "Heavy Club"
  , "weapon_type": ["Melee"]
  , "size": "TwoHanded"
  , "num_dice": 1
  , "dice_size": 6
  , "modifier": 0
  , "special_rules": [{
        "name": "Heavy"
      , "effect": "Characters wielding this weapon suffer -1 to their agility."
      , "cost": -10
      }]
  , "range_cm": 0
  , "cost": 6
  }
, { "name": "Dagger"
  , "weapon_type": ["Melee"]
  , "size": "OneHanded"
  , "num_dice": 1
  , "dice_size": 4
  , "modifier": 3
  , "special_rules": []
  , "range_cm": 0
  , "cost": 5
  }
, { "name": "Power Sword"
  , "weapon_type": ["Melee", "Complex"]
  , "size": "OneHanded"
  , "num_dice": 2
  , "dice_size": 6
  , "modifier": 0
  , "special_rules": []
  , "range_cm": 0
  , "cost": 15
  }
, { "name": "Great Sword"
  , "weapon_type": ["Melee"]
  , "size": "OneHanded"
  , "num_dice": 2
  , "dice_size": 6
  , "modifier": 6
  , "special_rules": []
  , "range_cm": 0
  , "cost": 20
  }
, { "name": "Power Fist"
  , "weapon_type": ["Melee"]
  , "size": "OneHanded"
  , "num_dice": 1
  , "dice_size": 10
  , "modifier": 5
  , "special_rules": [{
          "name": "Armor Piercing"
        , "effect": "Characters struck by this weapon may not make any armor rolls."
        , "cost": 30
        }
      , {
          "name": "Integral"
        , "effect": "This weapon cannot be removed during a game."
        , "cost": -10
        }]
  , "range_cm": 0
  , "cost": 30
  }
, { "name": "Electro-Maul"
  , "weapon_type": ["Melee"]
  , "size": "TwoHanded"
  , "num_dice": 1
  , "dice_size": 20
  , "modifier": 0
  , "special_rules": [{
          "name": "Armor Piercing"
        , "effect": "Characters struck by this weapon may not make any armor rolls."
        , "cost": 30
        }
      , { "name": "Heavy"      
        , "effect": "Characters wielding this weapon suffer -1 to their agility."
        , "cost": -10
        }
      ]
  , "range_cm": 0
  , "cost": 30
  }
, { "name": "Psy-Staff"
  , "weapon_type": ["Melee", "Complex", "Psychic"]
  , "size": "OneHanded"
  , "num_dice": 2
  , "dice_size": 8
  , "modifier": 2
  , "special_rules": [{
          "name": "Psychic"
        , "effect": "The wielder of this weapon may choose to use their (P) score when making shoot/fight actions with it, instead of their (S) or (F) skill."
        , "cost": 30
        }]
  , "range_cm": 0
  , "cost": 35
  }
, { "name": "Flaming Torch"
  , "weapon_type": ["Melee"]
  , "size": "OneHanded"
  , "num_dice": 4
  , "dice_size": 4
  , "modifier": 0
  , "special_rules": [{
          "name": "Poisonous"
        , "effect": "Any character hit by this weapon takes 1D4 damage at the start of every turn. This damage cannot be stopped with armor."
        , "cost": 40
        }]
  , "range_cm": 0
  , "cost": 15
  }
, { "name": "Primitive Pistol"
  , "weapon_type": ["Ranged"]
  , "size": "OneHanded"
  , "num_dice": 2
  , "dice_size": 4
  , "modifier": 0
  , "special_rules": [{
          "name": "Reload"
        , "effect": ""
        , "cost": -15
        }
      , { "name": "Ammo = Rough"
        , "effect": "Cost per ammo"
        , "cost": 2
        }]
  , "range_cm": 6
  , "cost": 15
  }
, { "name": "Primitive Pistol"
  , "weapon_type": ["Ranged"]
  , "size": "OneHanded"
  , "num_dice": 2
  , "dice_size": 4
  , "modifier": 0
  , "special_rules": [{
          "name": "Reload"
        , "effect": "After each attack made with this weapon, the wielder must use an action to reload it. This action uses 1 piece of ammo from the wielder's equipment."
        , "cost": -15
        }
      , { "name": "Ammo = Rough"
        , "effect": "Cost per ammo"
        , "cost": 2
        }]
  , "range_cm": 6
  , "cost": 15
  }
, { "name": "Black Powder Rifle"
  , "weapon_type": ["Ranged"]
  , "size": "TwoHanded"
  , "num_dice": 2
  , "dice_size": 4
  , "modifier": 0
  , "special_rules": [{
          "name": "Reload"
        , "effect": "After each attack made with this weapon, the wielder must use an action to reload it. This action uses 1 piece of ammo from the wielder's equipment."
        , "cost": -15
        }
      , { "name": "Ammo = Rough"
        , "effect": "Cost per ammo"
        , "cost": 2
        }]
  , "range_cm": 12
  , "cost": 25
  }
, { "name": "Laser Pistol"
  , "weapon_type": ["Ranged", "Complex", "Energy"]
  , "size": "OneHanded"
  , "num_dice": 1
  , "dice_size": 8
  , "modifier": 0
  , "special_rules": []
  , "range_cm": 15
  , "cost": 25
  }
, { "name": "Laser Rifle"
  , "weapon_type": ["Ranged", "Complex", "Energy"]
  , "size": "TwoHanded"
  , "num_dice": 2
  , "dice_size": 8
  , "modifier": 0
  , "special_rules": []
  , "range_cm": 40
  , "cost": 60
  }
, { "name": "Heavy Slug Pistol"
  , "weapon_type": ["Ranged", "Ballistic"]
  , "size": "OneHanded"
  , "num_dice": 3
  , "dice_size": 6
  , "modifier": 0
  , "special_rules": [{
          "name": "Reload"
        , "effect": "After each attack made with this weapon, the wielder must use an action to reload it. This action uses 1 piece of ammo from the wielder's equipment."
        , "cost": -15
        }
      , { "name": "Ammo = Basic"
        , "effect": "Cost per ammo"
        , "cost": 4
        }]
  , "range_cm": 12
  , "cost": 40
  }
, { "name": "Heavy Slug Rifle"
  , "weapon_type": ["Ranged", "Ballistic"]
  , "size": "TwoHanded"
  , "num_dice": 3
  , "dice_size": 6
  , "modifier": 0
  , "special_rules": [{
          "name": "Reload"
        , "effect": "After each attack made with this weapon, the wielder must use an action to reload it. This action uses 1 piece of ammo from the wielder's equipment."
        , "cost": -15
        }
      , { "name": "Ammo = Basic"
        , "effect": "Cost per ammo"
        , "cost": 4
        }]
  , "range_cm": 30
  , "cost": 50
  }
, { "name": "Missile Launcher"
  , "weapon_type": ["Ranged", "Ballistic"]
  , "size": "TwoHanded"
  , "num_dice": 3
  , "dice_size": 10
  , "modifier": 5
  , "special_rules": [{
          "name": "Reload"
        , "effect": "After each attack made with this weapon, the wielder must use an action to reload it. This action uses 1 piece of ammo from the wielder's equipment."
        , "cost": -15
        }
      , { "name": "Ammo = Special"
        , "effect": "Cost per ammo"
        , "cost": 7
        }
      , { "name": "Armor Piercing"
        , "effect": "Characters struck by this weapon may not make any armor rolls."
        , "cost": 30
        }
      , { "name": "Explosive"
        , "effect": "Any character or vehicle within 5cm of a character hit by this weapon suffers 1D6 damage."
        , "cost": 20
        }]
  , "range_cm": 40
  , "cost": 80
  }
, { "name": "Sniper Rifle"
  , "weapon_type": ["Ballistic", "Ranged"]
  , "size": "TwoHanded"
  , "num_dice": 2
  , "dice_size": 10
  , "modifier": 0
  , "special_rules": []
  , "range_cm": 60
  , "cost": 80
  }
, { "name": "Shotgun"
  , "weapon_type": ["Ballistic", "Ranged"]
  , "size": "TwoHanded"
  , "num_dice": 3
  , "dice_size": 8
  , "modifier": 0
  , "special_rules": []
  , "range_cm": 20
  , "cost": 50
  }
, { "name": "Plasma Rifle"
  , "weapon_type": ["Ranged", "Complex", "Energy"]
  , "size": "TwoHanded"
  , "num_dice": 1
  , "dice_size": 12
  , "modifier": 5
  , "special_rules": [
        { "name": "Armor Piercing"
        , "effect": "Characters struck by this weapon may not make any armor rolls."
        , "cost": 30
        }
      , { "name": "Volatile"
        , "effect": "If the user rolls a 10 when attempting a skill roll with this weapon then the weapon deals damage to the wielder rather than their target."
        , "cost": -10
        }]
  , "range_cm": 40
  , "cost": 80
  }
]